module gitlab.com/avoronkov/waver

go 1.18

require (
	github.com/cryptix/wav v0.0.0-20180415113528-8bdace674401
	github.com/fsnotify/fsnotify v1.5.1
	github.com/go-errors/errors v1.4.1
	github.com/hajimehoshi/oto/v2 v2.0.2
	gopkg.in/yaml.v3 v3.0.0-20210107192922-496545a6307b
)

require (
	github.com/cheekybits/is v0.0.0-20150225183255-68e9c0620927 // indirect
	golang.org/x/sys v0.0.0-20210630005230-0f9fa26af87c // indirect
)
